%YAML 1.1
%TAG !u! tag:unity3d.com,2011:
--- !u!78 &1
TagManager:
  serializedVersion: 2
  tags: []
  layers:
  - Default
  - TransparentFX
  - Ignore Raycast
  - 
  - Water
  - UI
  - Wall
  - Enemy
  - Player
  - 
  - 
  - 
  - 
  - 
  - 
  - 
  - 
  - 
  - 
  - 
  - 
  - 
  - 
  - 
  - 
  - 
  - 
  - 
  - 
  - 
  - 
  - 
  m_SortingLayers:
  - name: Default
    uniqueID: 0
    locked: 0
  - name: Wall
    uniqueID: 1411117593
    locked: 0
  - name: Object
    uniqueID: 4278841713
    locked: 0
  - name: Enemy
    uniqueID: 3915088947
    locked: 0
  - name: Player
    uniqueID: 3891089509
    locked: 0
